<?xml version="1.0" standalone="no"?> 
<!DOCTYPE svg PUBLIC "-//W3C//DTD SVG 1.1//EN" "http://www.w3.org/Graphics/SVG/1.1/DTD/svg11.dtd" >
<svg xmlns="http://www.w3.org/2000/svg">
<defs>
  <font id="Icons" horiz-adv-x="35.086">
    <font-face font-family="Icons"
      units-per-em="40" ascent="40"
      descent="0" />
    <missing-glyph horiz-adv-x="0" />
    <glyph glyph-name="authors"
      unicode="&#xE001;"
      horiz-adv-x="50.90909090909091" d=" M25.5927272727273 21.2454545454545C21.7981818181818 21.2454545454545 18.7109090909091 24.68 18.7109090909091 28.9C18.7109090909091 33.1181818181818 21.7981818181818 36.5509090909091 25.5927272727273 36.5509090909091C29.3836363636364 36.5509090909091 32.4709090909091 33.1181818181818 32.4709090909091 28.9C32.4709090909091 24.68 29.3854545454545 21.2454545454545 25.5927272727273 21.2454545454545L25.5927272727273 21.2454545454545zM25.5927272727273 32.9145454545455C23.8036363636364 32.9145454545455 22.3472727272727 31.1145454545455 22.3472727272727 28.9C22.3472727272727 26.6836363636364 23.8036363636364 24.8818181818182 25.5927272727273 24.8818181818182C27.38 24.8818181818182 28.8345454545455 26.6836363636364 28.8345454545455 28.9C28.8345454545455 31.1145454545455 27.3818181818182 32.9145454545455 25.5927272727273 32.9145454545455L25.5927272727273 32.9145454545455z M35.2127272727273 3.4472727272727H15.7218181818182C14.7672727272727 3.4472727272727 13.9745454545455 4.1854545454545 13.9090909090909 5.1418181818182C13.76 7.2509090909091 13.6163636363636 9.36 13.48 11.4381818181818C13.3054545454545 13.9836363636364 15.2072727272727 16.8181818181818 17.72 17.7490909090909C22.7272727272727 19.5454545454545 28.2236363636364 19.5345454545455 33.1981818181818 17.7527272727273C35.7309090909091 16.8236363636364 37.6309090909091 13.9927272727273 37.4563636363636 11.4309090909091L37.0272727272727 5.1418181818182C36.96 4.1872727272727 36.1672727272727 3.4472727272727 35.2127272727273 3.4472727272727L35.2127272727273 3.4472727272727zM17.4181818181818 7.0836363636364H33.5145454545455L33.8272727272727 11.6763636363636C33.88 12.4527272727273 33.12 13.9054545454545 31.96 14.3309090909091C27.8090909090909 15.82 23.1527272727273 15.8254545454545 18.9672727272727 14.3272727272727C17.8218181818182 13.9054545454545 17.06 12.4490909090909 17.1127272727273 11.6781818181818C17.2090909090909 10.1618181818182 17.3127272727273 8.6254545454545 17.4181818181818 7.0836363636364L17.4181818181818 7.0836363636364z M35.2127272727273 3.4472727272727H15.7218181818182C14.7672727272727 3.4472727272727 13.9745454545455 4.1854545454545 13.9090909090909 5.1418181818182C13.76 7.2509090909091 13.6163636363636 9.36 13.48 11.4381818181818C13.3054545454545 13.9836363636364 15.2072727272727 16.8181818181818 17.72 17.7490909090909C22.7272727272727 19.5454545454545 28.2236363636364 19.5345454545455 33.1981818181818 17.7527272727273C35.7309090909091 16.8236363636364 37.6309090909091 13.9927272727273 37.4563636363636 11.4309090909091L37.0272727272727 5.1418181818182C36.96 4.1872727272727 36.1672727272727 3.4472727272727 35.2127272727273 3.4472727272727L35.2127272727273 3.4472727272727zM17.4181818181818 7.0836363636364H33.5145454545455L33.8272727272727 11.6763636363636C33.88 12.4527272727273 33.12 13.9054545454545 31.96 14.3309090909091C27.8090909090909 15.82 23.1527272727273 15.8254545454545 18.9672727272727 14.3272727272727C17.8218181818182 13.9054545454545 17.06 12.4490909090909 17.1127272727273 11.6781818181818C17.2090909090909 10.1618181818182 17.3127272727273 8.6254545454545 17.4181818181818 7.0836363636364L17.4181818181818 7.0836363636364z M47.0018181818182 6.4018181818182H39.2418181818182C38.74 6.4018181818182 38.3327272727273 6.8109090909091 38.3327272727273 7.3109090909091C38.3327272727273 7.8127272727273 38.74 8.22 39.2418181818182 8.22H46.1527272727273L46.4690909090909 12.8036363636364C46.5381818181818 13.8018181818182 45.66 15.3109090909091 44.4236363636364 15.7636363636364C42.6581818181818 16.3963636363636 40.8054545454545 16.7327272727273 38.9163636363636 16.7654545454545C38.4163636363636 16.7763636363636 38.0145454545455 17.1872727272727 38.0254545454545 17.6927272727273C38.0327272727273 18.1872727272727 38.44 18.5836363636364 38.9345454545455 18.5836363636364C38.9381818181818 18.5836363636364 38.9454545454545 18.5836363636364 38.9490909090909 18.5836363636364C41.0363636363636 18.5472727272727 43.0872727272727 18.1745454545455 45.0472727272727 17.4763636363636C46.9381818181818 16.78 48.4181818181818 14.5854545454545 48.2872727272727 12.6818181818182L47.9145454545455 7.2527272727273C47.8763636363636 6.7727272727273 47.48 6.4018181818182 47.0018181818182 6.4018181818182L47.0018181818182 6.4018181818182z M41.0309090909091 20.5545454545455C38.3509090909091 20.5545454545455 36.1727272727273 23.0036363636364 36.1727272727273 26.0127272727273C36.1727272727273 29.02 38.3509090909091 31.4690909090909 41.0309090909091 31.4690909090909C43.7072727272727 31.4690909090909 45.8836363636364 29.02 45.8836363636364 26.0127272727273C45.8836363636364 23.0036363636364 43.7072727272727 20.5545454545455 41.0309090909091 20.5545454545455L41.0309090909091 20.5545454545455zM41.0309090909091 29.6509090909091C39.3545454545455 29.6509090909091 37.9909090909091 28.02 37.9909090909091 26.0127272727273S39.3545454545455 22.3727272727273 41.0309090909091 22.3727272727273C42.7036363636364 22.3727272727273 44.0654545454545 24.0054545454545 44.0654545454545 26.0127272727273S42.7036363636364 29.6509090909091 41.0309090909091 29.6509090909091L41.0309090909091 29.6509090909091z M11.6654545454545 6.4018181818182H3.9018181818182C3.4254545454545 6.4018181818182 3.0309090909091 6.7709090909091 2.9963636363636 7.2509090909091L2.6254545454545 12.68C2.4945454545455 14.5836363636364 3.9727272727273 16.7781818181818 5.86 17.4709090909091C7.8218181818182 18.1745454545455 9.8727272727273 18.5472727272727 11.96 18.5818181818182C12.4854545454545 18.5109090909091 12.8763636363636 18.1890909090909 12.8854545454545 17.6872727272727C12.8945454545455 17.1872727272727 12.4945454545455 16.7709090909091 11.9927272727273 16.7636363636364C10.1036363636364 16.7290909090909 8.2472727272727 16.3945454545455 6.48 15.7581818181818C5.2490909090909 15.3072727272727 4.3709090909091 13.7981818181818 4.44 12.8018181818182L4.7527272727273 8.2181818181818H11.6672727272727C12.1690909090909 8.2181818181818 12.5763636363636 7.8090909090909 12.5763636363636 7.3090909090909C12.5763636363636 6.8090909090909 12.1672727272727 6.4018181818182 11.6654545454545 6.4018181818182L11.6654545454545 6.4018181818182z M9.8763636363636 20.5545454545455C7.2 20.5545454545455 5.0236363636364 23.0036363636364 5.0236363636364 26.0127272727273C5.0236363636364 29.02 7.2 31.4690909090909 9.8763636363636 31.4690909090909C12.5545454545455 31.4690909090909 14.7327272727273 29.02 14.7327272727273 26.0127272727273C14.7327272727273 23.0036363636364 12.5527272727273 20.5545454545455 9.8763636363636 20.5545454545455L9.8763636363636 20.5545454545455zM9.8763636363636 29.6509090909091C8.2036363636364 29.6509090909091 6.8418181818182 28.02 6.8418181818182 26.0127272727273S8.2036363636364 22.3727272727273 9.8763636363636 22.3727272727273C11.5509090909091 22.3727272727273 12.9145454545455 24.0054545454545 12.9145454545455 26.0127272727273S11.5509090909091 29.6509090909091 9.8763636363636 29.6509090909091L9.8763636363636 29.6509090909091z" />
    <glyph glyph-name="pubs"
      unicode="&#xE002;"
      horiz-adv-x="38.510550723046954" d=" M23.7752106028593 40H14.465329418544H5.1554482342288L0 22.1661224377795C4.9754410997997 16.7055401586038 11.08909804352 9.7478253711275 11.0232417748264 0C11.1176357599539 0 11.2043465137338 0 11.2899596630354 0C12.0099882007519 0 12.4161018576956 0 12.6125730592981 0C12.7124550668167 0 12.7585544549022 0 12.7640424772933 0L12.7640424772933 0C12.8024586340312 0 12.8408747907691 0 12.8814861564635 0C12.9308783579837 0 12.9780753505474 0 13.0318579699805 0C13.1514968581072 0 13.3501632686661 0 13.6509068957001 0V17.0820184946355C10.5128556924512 17.482644129188 8.0871497955712 20.1597014515819 8.0871497955712 23.4075131026535C8.0871497955712 26.9297258732816 10.9420190434377 29.7867903301045 14.465329418544 29.7867903301045C17.9875421891721 29.7867903301045 20.8446066459951 26.9297258732816 20.8446066459951 23.4075131026535C20.8446066459951 20.1607990560601 18.4189007491151 17.482644129188 15.2797519413879 17.0820184946355V0C15.5804955684219 0 15.7802595834591 0 15.8998984715858 0C15.9525834865406 0 16.0008780835826 0 16.051367889581 0C16.0897840463189 0 16.1292978075351 0 16.167713964273 0L16.167713964273 0C16.1742995911423 0 16.2193013747496 0 16.31808577779 0C16.5145569793925 0 16.9217682408144 0 17.6417967785309 0C17.7252147188761 0 17.8130230771342 0 17.9085146667398 0C17.8426583980463 9.7478253711275 23.9563153417666 16.7066377630821 28.9306588370881 22.1661224377795L23.7752106028593 40z M20.5592294816563 2.3828993222292H38.5094531185687V0.0175616716516H20.5592294816563V2.3828993222292z" />
    <glyph glyph-name="top"
      unicode="&#xE003;"
      horiz-adv-x="50.90909090909091" d=" M10.7181818181818 0H3.6C2.6145454545455 0 1.8181818181818 0.7927272727273 1.8181818181818 1.7690909090909V11.6672727272727C1.8181818181818 12.6436363636364 2.6145454545455 13.4345454545455 3.6 13.4345454545455H10.7181818181818C11.7036363636364 13.4345454545455 12.5 12.6436363636364 12.5 11.6672727272727V1.7690909090909C12.5 0.7927272727273 11.7036363636364 0 10.7181818181818 0L10.7181818181818 0zM5.38 3.5363636363636H8.9363636363636V9.8981818181818H5.38V3.5363636363636L5.38 3.5363636363636z M29.0145454545455 0H21.8927272727273C20.9090909090909 0 20.1127272727273 0.7927272727273 20.1127272727273 1.7690909090909V36.7963636363636C20.1127272727273 37.7745454545455 20.9090909090909 38.5654545454545 21.8927272727273 38.5654545454545H29.0145454545455C30 38.5654545454545 30.7945454545455 37.7745454545455 30.7945454545455 36.7963636363636V1.7690909090909C30.7963636363636 0.7927272727273 30 0 29.0145454545455 0L29.0145454545455 0zM23.6745454545455 3.5363636363636H27.2327272727273V35.0290909090909H23.6745454545455V3.5363636363636L23.6745454545455 3.5363636363636z M47.5018181818182 0H40.3818181818182C39.3963636363636 0 38.6 0.7927272727273 38.6 1.7690909090909V23.96C38.6 24.9363636363636 39.3963636363636 25.7272727272727 40.3818181818182 25.7272727272727H47.5018181818182C48.4854545454545 25.7272727272727 49.2818181818182 24.9363636363636 49.2818181818182 23.96V1.7672727272727C49.2818181818182 0.7927272727273 48.4854545454545 0 47.5018181818182 0L47.5018181818182 0zM42.1636363636364 3.5363636363636H45.7218181818182V22.1927272727273H42.1636363636364V3.5363636363636L42.1636363636364 3.5363636363636z" />
    <glyph glyph-name="top2"
      unicode="&#xE004;"
      horiz-adv-x="50.90909090909091" d=" M10.7181818181818 0H3.6C2.6145454545455 0 1.8181818181818 0.7927272727273 1.8181818181818 1.7690909090909V11.6672727272727C1.8181818181818 12.6436363636364 2.6145454545455 13.4345454545455 3.6 13.4345454545455H10.7181818181818C11.7036363636364 13.4345454545455 12.5 12.6436363636364 12.5 11.6672727272727V1.7690909090909C12.5 0.7927272727273 11.7036363636364 0 10.7181818181818 0L10.7181818181818 0zM5.38 3.5363636363636H8.9363636363636V9.8981818181818H5.38V3.5363636363636L5.38 3.5363636363636z M29.0145454545455 0H21.8927272727273C20.9090909090909 0 20.1127272727273 0.7927272727273 20.1127272727273 1.7690909090909V36.7963636363636C20.1127272727273 37.7745454545455 20.9090909090909 38.5654545454545 21.8927272727273 38.5654545454545H29.0145454545455C30 38.5654545454545 30.7945454545455 37.7745454545455 30.7945454545455 36.7963636363636V1.7690909090909C30.7963636363636 0.7927272727273 30 0 29.0145454545455 0L29.0145454545455 0zM23.6745454545455 3.5363636363636H27.2327272727273V35.0290909090909H23.6745454545455V3.5363636363636L23.6745454545455 3.5363636363636z M47.5018181818182 0H40.3818181818182C39.3963636363636 0 38.6 0.7927272727273 38.6 1.7690909090909V23.96C38.6 24.9363636363636 39.3963636363636 25.7272727272727 40.3818181818182 25.7272727272727H47.5018181818182C48.4854545454545 25.7272727272727 49.2818181818182 24.9363636363636 49.2818181818182 23.96V1.7672727272727C49.2818181818182 0.7927272727273 48.4854545454545 0 47.5018181818182 0L47.5018181818182 0zM42.1636363636364 3.5363636363636H45.7218181818182V22.1927272727273H42.1636363636364V3.5363636363636L42.1636363636364 3.5363636363636z" />
  </font>
</defs>
</svg>
